[gd_scene load_steps=3 format=2]

[ext_resource path="res://blokoj/asteroidoj/resursoj/ast_ice_3_cr.glb" type="PackedScene" id=1]

[sub_resource type="ConcavePolygonShape" id=1]
data = PoolVector3Array( 6.705, -11.4904, 2.5305, 12.2005, -8.2967, 5, 11.571, -8.5809, 2.6678, -5.4659, -5.7617, 9.6557, -1.697, -7.2808, 10.555, -8.9512, -7.5292, 3.2247, 6.9503, -5.773, -14.3721, -0.978, -2.9465, -16.5578, 3.4551, -9.697, -11.3693, -19.445, 16.9081, -0.4266, -17.5428, 18.1686, 1.1998, -14.8785, 14.9914, 5.3181, -13.5376, 27.7957, -5.6845, -11.797, 24.2164, -10.8307, -9.9375, 27.6136, -8.3394, -9.9975, 29.5229, -5.5583, -13.5376, 27.7957, -5.6845, -9.9375, 27.6136, -8.3394, 11.0936, 0.3686, 10.9447, 12.5976, -2.7291, 8.5934, 5.0488, -2.7854, 12.0842, 10.13, 8.9909, 7.8279, 11.21, 16.7628, 2.0426, 15.3529, 5.7613, 2.2368, -1.9707, 27.2916, -11.4542, 0.7929, 21.4682, -15.1687, 3.4642, 22.7518, -14.1975, 2.8387, 27.0219, -3.5272, -1.5002, 30.8817, -5.2458, 3.2272, 28.3904, -9.1707, 7.8979, 24.1487, -7.6145, 9.6367, 20.8259, -3.9078, 2.8387, 27.0219, -3.5272, 3.2272, 28.3904, -9.1707, 7.8979, 24.1487, -7.6145, 2.8387, 27.0219, -3.5272, -2.7275, 6.7311, -19.4913, -7.3515, 3.2367, -18.4359, 0.2707, -0.6319, -17.5613, -3.847, 11.1238, -19.7602, 1.357, 4.4696, -18.4776, 3.3755, 10.7272, -16.9789, -16.8809, 2.8714, -9.0059, -11.7785, 7.2942, -15.3944, -14.9426, 6.2619, -11.0883, -5.7339, 29.5328, -0.2768, -6.7482, 25.248, 5.2297, -10.4239, 29.9463, -4.1203, -5.1503, 32.4182, -5.1149, -5.7339, 29.5328, -0.2768, -10.4239, 29.9463, -4.1203, 12.1753, 15.2393, -5.06, 14.8876, 8.5691, -2.1696, 13.8518, 13.2443, -1.0616, 9.6367, 20.8259, -3.9078, 8.7366, 21.1371, -8.118, 12.1753, 15.2393, -5.06, 3.3755, 10.7272, -16.9789, 8.8079, 1.5855, -15.134, 8.1496, 12.1255, -12.4347, -10.6942, 11.9072, -15.934, -11.7785, 7.2942, -15.3944, -5.9472, 7.0242, -18.9295, -19.5635, 15.466, -3.4336, -19.4809, 5.8855, -6.1411, -17.8119, 11.8951, -9.0055, -9.3551, 11.8712, 10.6376, -8.2763, 16.3156, 8.8543, -1.7702, 6.1285, 12.0751, 0.3831, 15.794, 8.7401, 9.7551, 2.7389, 12.4019, -1.7702, 6.1285, 12.0751, -20.0041, 7.0763, 1.5227, -14.9691, 0.4295, 6.6215, -19.4838, 0.0869, -4.3699, 9.224, 13.6325, 5.6127, 10.13, 8.9909, 7.8279, 0.3831, 15.794, 8.7401, 2.775, -12.629, -5.379, 11.571, -8.5809, 2.6678, 11.7169, -6.9161, -5.1355, 3.4551, -9.697, -11.3693, 2.775, -12.629, -5.379, 11.7169, -6.9161, -5.1355, 10.8556, -4.3146, -11.0912, 3.4551, -9.697, -11.3693, 11.7169, -6.9161, -5.1355, 7.5608, 0.851, 12.6027, 5.0488, -2.7854, 12.0842, -1.7702, 6.1285, 12.0751, 11.0936, 0.3686, 10.9447, 15.7396, 3.469, 2.9055, 14.9367, -3.7343, 4.4208, -10.8393, -7.9791, -8.0354, -5.0083, -12.285, -6.4363, -4.6265, -8.4472, -12.0555, 14.8876, 8.5691, -2.1696, 12.1753, 15.2393, -5.06, 11.0168, 2.5422, -12.4473, 12.1753, 15.2393, -5.06, 8.7366, 21.1371, -8.118, 11.0168, 2.5422, -12.4473, -12.4339, -1.0852, 8.9086, -10.412, 7.7479, 11.3015, -4.5317, -2.5095, 10.875, -20.0041, 7.0763, 1.5227, -19.4838, 0.0869, -4.3699, -20.1543, 8.5288, -3.2854, -20.1543, 8.5288, -3.2854, -19.5336, 16.3943, -1.7407, -19.445, 16.9081, -0.4266, 14.6159, -2.0653, -5.5471, 10.8556, -4.3146, -11.0912, 13.2102, -5.7749, -4.4449, -1.697, -7.2808, 10.555, 0.1146, -14.1127, -0.322, -8.9512, -7.5292, 3.2247, 0.1146, -14.1127, -0.322, -12.7444, -8.9204, -4.6055, -8.9512, -7.5292, 3.2247, -13.0423, -2.424, 8.1111, -14.9691, 0.4295, 6.6215, -12.4339, -1.0852, 8.9086, -19.7849, 19.717, -1.2514, -17.6447, 22.2175, -5.9185, -19.1446, 21.5098, -1.3477, 11.21, 16.7628, 2.0426, 4.1019, 20.8783, 2.8092, 10.9069, 19.1511, -1.025, -1.5002, 30.8817, -5.2458, -5.1503, 32.4182, -5.1149, -3.2441, 32.332, -6.4532, -5.3399, 32.3928, -6.0601, -8.0472, 26.0529, -10.2176, -2.9911, 30.8896, -8.3904, 15.7866, 0.6241, -1.3186, 16.6782, 1.4548, 1.3725, 16.7163, 4.0545, -0.4693, 9.7551, 2.7389, 12.4019, 15.3529, 5.7613, 2.2368, 12.4777, 4.1868, 8.3678, -10.1585, 8.9947, 11.3988, -1.7702, 6.1285, 12.0751, -10.412, 7.7479, 11.3015, -10.1585, 8.9947, 11.3988, -10.5156, 18.3577, 6.6684, -9.3551, 11.8712, 10.6376, -10.3798, -0.7871, -16.4411, -10.8393, -7.9791, -8.0354, -9.0515, -2.1504, -16.1942, 8.8857, -2.7711, -14.7831, 11.0168, 2.5422, -12.4473, 8.8079, 1.5855, -15.134, 8.8857, -2.7711, -14.7831, 8.1864, -0.8158, -16.6058, 7.5864, -3.5775, -15.2874, -9.9975, 29.5229, -5.5583, -10.4239, 29.9463, -4.1203, -13.76, 28.328, -3.9146, -13.76, 28.328, -3.9146, -15.3989, 25.5282, -4.7848, -13.5376, 27.7957, -5.6845, 0.1146, -14.1127, -0.322, -1.697, -7.2808, 10.555, 1.6869, -6.9652, 9.7046, -4.6265, -8.4472, -12.0555, 0.3069, -13.8725, -7.5474, 3.4551, -9.697, -11.3693, -14.9691, 0.4295, 6.6215, -13.0423, -2.424, 8.1111, -19.4838, 0.0869, -4.3699, -10.5156, 18.3577, 6.6684, -10.1585, 8.9947, 11.3988, -14.8785, 14.9914, 5.3181, -10.5156, 18.3577, 6.6684, -14.8785, 14.9914, 5.3181, -17.5428, 18.1686, 1.1998, -14.8785, 14.9914, 5.3181, -10.1585, 8.9947, 11.3988, -12.5235, 8.5798, 9.5607, -19.4809, 5.8855, -6.1411, -16.8809, 2.8714, -9.0059, -17.8119, 11.8951, -9.0055, 2.8387, 27.0219, -3.5272, 10.9069, 19.1511, -1.025, 1.8738, 23.5443, 2.3729, 10.9069, 19.1511, -1.025, 4.1019, 20.8783, 2.8092, 1.8738, 23.5443, 2.3729, 1.8738, 23.5443, 2.3729, 4.1019, 20.8783, 2.8092, -2.0902, 24.1077, 4.1909, -9.6589, 26.3086, 1.745, -7.1829, 22.6679, 6.4743, -15.9303, 22.9508, 0.1479, -15.9303, 22.9508, 0.1479, -10.5156, 18.3577, 6.6684, -17.5428, 18.1686, 1.1998, -5.7339, 29.5328, -0.2768, -5.1503, 32.4182, -5.1149, -1.5002, 30.8817, -5.2458, -15.3989, 25.5282, -4.7848, -13.76, 28.328, -3.9146, -16.3907, 24.8994, -2.5428, -13.76, 28.328, -3.9146, -14.5968, 27.3326, -3.028, -16.3907, 24.8994, -2.5428, 13.2102, -5.7749, -4.4449, 11.7169, -6.9161, -5.1355, 13.5992, -7.2446, 1.8663, -5.0083, -12.285, -6.4363, 0.1146, -14.1127, -0.322, 0.3069, -13.8725, -7.5474, -0.978, -2.9465, -16.5578, -9.0515, -2.1504, -16.1942, -4.6265, -8.4472, -12.0555, -9.0515, -2.1504, -16.1942, -10.8393, -7.9791, -8.0354, -4.6265, -8.4472, -12.0555, -16.9577, -0.7064, -8.2631, -19.4838, 0.0869, -4.3699, -12.7444, -8.9204, -4.6055, 15.3529, 5.7613, 2.2368, 13.8518, 13.2443, -1.0616, 16.7163, 4.0545, -0.4693, 12.5976, -2.7291, 8.5934, 13.736, -6.7133, 5.7959, 1.6869, -6.9652, 9.7046, -10.412, 7.7479, 11.3015, -14.9691, 0.4295, 6.6215, -12.5235, 8.5798, 9.5607, -10.412, 7.7479, 11.3015, -12.4339, -1.0852, 8.9086, -14.9691, 0.4295, 6.6215, -10.6942, 11.9072, -15.934, -14.5774, 20.0276, -13.0021, -11.7785, 7.2942, -15.3944, -11.7785, 7.2942, -15.3944, -14.5774, 20.0276, -13.0021, -14.9227, 13.9065, -12.5694, -5.3399, 32.3928, -6.0601, -10.4239, 29.9463, -4.1203, -9.9975, 29.5229, -5.5583, -5.3399, 32.3928, -6.0601, -5.1503, 32.4182, -5.1149, -10.4239, 29.9463, -4.1203, -8.0472, 26.0529, -10.2176, -5.3399, 32.3928, -6.0601, -11.797, 24.2164, -10.8307, -10.3632, 21.2647, -13.9891, -8.0472, 26.0529, -10.2176, -11.797, 24.2164, -10.8307, -9.9375, 27.6136, -8.3394, -5.3399, 32.3928, -6.0601, -9.9975, 29.5229, -5.5583, 6.744, 25.5223, -10.3398, 3.2272, 28.3904, -9.1707, 3.4642, 22.7518, -14.1975, -10.3632, 21.2647, -13.9891, -14.5774, 20.0276, -13.0021, -6.788, 11.649, -18.7059, -16.0852, 20.7884, -9.6091, -14.7647, 21.2593, -12.0558, -13.5596, 25.0855, -7.8459, -17.8119, 11.8951, -9.0055, -16.0852, 20.7884, -9.6091, -17.9802, 20.6924, -6.5958, -9.6589, 26.3086, 1.745, -14.5968, 27.3326, -3.028, -12.5539, 28.6902, -3.0857, -9.6589, 26.3086, 1.745, -10.4239, 29.9463, -4.1203, -6.7482, 25.248, 5.2297, 11.0168, 2.5422, -12.4473, 8.1496, 12.1255, -12.4347, 8.8079, 1.5855, -15.134, 6.744, 25.5223, -10.3398, 3.4642, 22.7518, -14.1975, 8.1496, 12.1255, -12.4347, -2.7275, 6.7311, -19.4913, -5.9472, 7.0242, -18.9295, -7.3515, 3.2367, -18.4359, -19.5336, 16.3943, -1.7407, -20.1543, 8.5288, -3.2854, -19.5635, 15.466, -3.4336, -7.1829, 22.6679, 6.4743, -8.2763, 16.3156, 8.8543, -10.5156, 18.3577, 6.6684, -8.2763, 16.3156, 8.8543, -9.3551, 11.8712, 10.6376, -10.5156, 18.3577, 6.6684, 15.3529, 5.7613, 2.2368, 9.7551, 2.7389, 12.4019, 10.13, 8.9909, 7.8279, 11.21, 16.7628, 2.0426, 10.13, 8.9909, 7.8279, 9.224, 13.6325, 5.6127, 11.0936, 0.3686, 10.9447, 12.4777, 4.1868, 8.3678, 15.7396, 3.469, 2.9055, 15.7396, 3.469, 2.9055, 12.4777, 4.1868, 8.3678, 15.3529, 5.7613, 2.2368, 0.2707, -0.6319, -17.5613, 6.2778, -1.9719, -17.3377, 1.357, 4.4696, -18.4776, 0.2707, -0.6319, -17.5613, 1.357, 4.4696, -18.4776, -2.7275, 6.7311, -19.4913, -16.9577, -0.7064, -8.2631, -10.3798, -0.7871, -16.4411, -16.8809, 2.8714, -9.0059, -10.8393, -7.9791, -8.0354, -10.3798, -0.7871, -16.4411, -12.7444, -8.9204, -4.6055, -12.7444, -8.9204, -4.6055, -10.3798, -0.7871, -16.4411, -16.9577, -0.7064, -8.2631, -14.9691, 0.4295, 6.6215, -20.0041, 7.0763, 1.5227, -16.5476, 8.1462, 5.4906, -10.1585, 8.9947, 11.3988, -9.3551, 11.8712, 10.6376, -1.7702, 6.1285, 12.0751, -4.5317, -2.5095, 10.875, -10.412, 7.7479, 11.3015, -1.7702, 6.1285, 12.0751, 7.5608, 0.851, 12.6027, 11.0936, 0.3686, 10.9447, 5.0488, -2.7854, 12.0842, -12.7444, -8.9204, -4.6055, -5.0083, -12.285, -6.4363, -10.8393, -7.9791, -8.0354, 1.6869, -6.9652, 9.7046, 12.2005, -8.2967, 5, 6.705, -11.4904, 2.5305, -19.445, 16.9081, -0.4266, -12.5235, 8.5798, 9.5607, -16.5476, 8.1462, 5.4906, -19.445, 16.9081, -0.4266, -14.8785, 14.9914, 5.3181, -12.5235, 8.5798, 9.5607, -12.5235, 8.5798, 9.5607, -14.9691, 0.4295, 6.6215, -16.5476, 8.1462, 5.4906, -0.978, -2.9465, -16.5578, -4.6265, -8.4472, -12.0555, 3.4551, -9.697, -11.3693, 3.2272, 28.3904, -9.1707, -1.9707, 27.2916, -11.4542, 3.4642, 22.7518, -14.1975, 3.2272, 28.3904, -9.1707, -2.9911, 30.8896, -8.3904, -1.9707, 27.2916, -11.4542, 1.6869, -6.9652, 9.7046, 5.0488, -2.7854, 12.0842, 12.5976, -2.7291, 8.5934, -10.3632, 21.2647, -13.9891, -2.9931, 22.5116, -14.535, -8.0472, 26.0529, -10.2176, -15.9303, 22.9508, 0.1479, -16.3907, 24.8994, -2.5428, -9.6589, 26.3086, 1.745, -14.5968, 27.3326, -3.028, -9.6589, 26.3086, 1.745, -16.3907, 24.8994, -2.5428, -2.2572, 20.2437, -16.7555, -6.788, 11.649, -18.7059, -3.847, 11.1238, -19.7602, -2.2572, 20.2437, -16.7555, -10.3632, 21.2647, -13.9891, -6.788, 11.649, -18.7059, -9.0515, -2.1504, -16.1942, 0.2707, -0.6319, -17.5613, -7.3515, 3.2367, -18.4359, -11.7785, 7.2942, -15.3944, -17.8119, 11.8951, -9.0055, -14.9426, 6.2619, -11.0883, -14.9227, 13.9065, -12.5694, -17.8119, 11.8951, -9.0055, -11.7785, 7.2942, -15.3944, -16.8809, 2.8714, -9.0059, -14.9426, 6.2619, -11.0883, -17.8119, 11.8951, -9.0055, -5.7339, 29.5328, -0.2768, 2.8387, 27.0219, -3.5272, -2.0902, 24.1077, 4.1909, -5.7339, 29.5328, -0.2768, -1.5002, 30.8817, -5.2458, 2.8387, 27.0219, -3.5272, 2.8387, 27.0219, -3.5272, 1.8738, 23.5443, 2.3729, -2.0902, 24.1077, 4.1909, 12.4334, 16.9833, -0.6247, 12.1753, 15.2393, -5.06, 13.8518, 13.2443, -1.0616, 12.4334, 16.9833, -0.6247, 9.6367, 20.8259, -3.9078, 12.1753, 15.2393, -5.06, 8.1496, 12.1255, -12.4347, 0.2091, 19.3915, -17.2015, 3.3755, 10.7272, -16.9789, 3.4642, 22.7518, -14.1975, 0.2091, 19.3915, -17.2015, 8.1496, 12.1255, -12.4347, -8.2763, 16.3156, 8.8543, 0.3831, 15.794, 8.7401, -1.7702, 6.1285, 12.0751, -8.2763, 16.3156, 8.8543, -4.137, 20.348, 7.7772, 0.3831, 15.794, 8.7401, -19.5635, 15.466, -3.4336, -17.8119, 11.8951, -9.0055, -17.9802, 20.6924, -6.5958, -13.5596, 25.0855, -7.8459, -17.6447, 22.2175, -5.9185, -16.0852, 20.7884, -9.6091, -13.5596, 25.0855, -7.8459, -15.3989, 25.5282, -4.7848, -17.6447, 22.2175, -5.9185, 0.3831, 15.794, 8.7401, 4.1019, 20.8783, 2.8092, 9.224, 13.6325, 5.6127, -2.0902, 24.1077, 4.1909, 4.1019, 20.8783, 2.8092, 0.3831, 15.794, 8.7401, 11.21, 16.7628, 2.0426, 9.224, 13.6325, 5.6127, 4.1019, 20.8783, 2.8092, -4.5317, -2.5095, 10.875, 5.0488, -2.7854, 12.0842, -1.697, -7.2808, 10.555, -4.5317, -2.5095, 10.875, -1.7702, 6.1285, 12.0751, 5.0488, -2.7854, 12.0842, 15.7866, 0.6241, -1.3186, 13.2102, -5.7749, -4.4449, 13.5992, -7.2446, 1.8663, 15.7866, 0.6241, -1.3186, 14.6159, -2.0653, -5.5471, 13.2102, -5.7749, -4.4449, 12.5976, -2.7291, 8.5934, 11.0936, 0.3686, 10.9447, 14.9367, -3.7343, 4.4208, -16.8809, 2.8714, -9.0059, -19.4838, 0.0869, -4.3699, -16.9577, -0.7064, -8.2631, -16.8809, 2.8714, -9.0059, -19.4809, 5.8855, -6.1411, -19.4838, 0.0869, -4.3699, -19.4838, 0.0869, -4.3699, -13.0423, -2.424, 8.1111, -12.7444, -8.9204, -4.6055, -19.4809, 5.8855, -6.1411, -20.1543, 8.5288, -3.2854, -19.4838, 0.0869, -4.3699, 16.7163, 4.0545, -0.4693, 15.7396, 3.469, 2.9055, 15.3529, 5.7613, 2.2368, -4.137, 20.348, 7.7772, -7.1829, 22.6679, 6.4743, -6.7482, 25.248, 5.2297, -2.0902, 24.1077, 4.1909, -4.137, 20.348, 7.7772, -6.7482, 25.248, 5.2297, -7.1829, 22.6679, 6.4743, -9.6589, 26.3086, 1.745, -6.7482, 25.248, 5.2297, -17.5428, 18.1686, 1.1998, -19.445, 16.9081, -0.4266, -19.7849, 19.717, -1.2514, -17.5428, 18.1686, 1.1998, -19.7849, 19.717, -1.2514, -19.1446, 21.5098, -1.3477, -15.9303, 22.9508, 0.1479, -17.5428, 18.1686, 1.1998, -19.1446, 21.5098, -1.3477, -19.5635, 15.466, -3.4336, -19.7849, 19.717, -1.2514, -19.5336, 16.3943, -1.7407, -19.445, 16.9081, -0.4266, -19.5336, 16.3943, -1.7407, -19.7849, 19.717, -1.2514, 12.4334, 16.9833, -0.6247, 11.21, 16.7628, 2.0426, 10.9069, 19.1511, -1.025, 12.4334, 16.9833, -0.6247, 10.9069, 19.1511, -1.025, 9.6367, 20.8259, -3.9078, 2.8387, 27.0219, -3.5272, 9.6367, 20.8259, -3.9078, 10.9069, 19.1511, -1.025, -3.2441, 32.332, -6.4532, -5.1503, 32.4182, -5.1149, -5.3399, 32.3928, -6.0601, -2.9911, 30.8896, -8.3904, -3.2441, 32.332, -6.4532, -5.3399, 32.3928, -6.0601, -5.4659, -5.7617, 9.6557, -4.5317, -2.5095, 10.875, -1.697, -7.2808, 10.555, 12.2005, -8.2967, 5, 1.6869, -6.9652, 9.7046, 13.736, -6.7133, 5.7959, 13.5992, -7.2446, 1.8663, 11.571, -8.5809, 2.6678, 12.2005, -8.2967, 5, 13.5992, -7.2446, 1.8663, 12.2005, -8.2967, 5, 13.736, -6.7133, 5.7959, 14.9367, -3.7343, 4.4208, 13.5992, -7.2446, 1.8663, 13.736, -6.7133, 5.7959, 12.5976, -2.7291, 8.5934, 14.9367, -3.7343, 4.4208, 13.736, -6.7133, 5.7959, 2.775, -12.629, -5.379, 3.4551, -9.697, -11.3693, 0.3069, -13.8725, -7.5474, 0.7929, 21.4682, -15.1687, -2.2572, 20.2437, -16.7555, 0.2091, 19.3915, -17.2015, 0.7929, 21.4682, -15.1687, -2.9931, 22.5116, -14.535, -2.2572, 20.2437, -16.7555, 16.6782, 1.4548, 1.3725, 15.7396, 3.469, 2.9055, 16.7163, 4.0545, -0.4693, 6.705, -11.4904, 2.5305, 2.775, -12.629, -5.379, 0.1146, -14.1127, -0.322, 6.705, -11.4904, 2.5305, 11.571, -8.5809, 2.6678, 2.775, -12.629, -5.379, 11.0936, 0.3686, 10.9447, 7.5608, 0.851, 12.6027, 9.7551, 2.7389, 12.4019, 12.4777, 4.1868, 8.3678, 11.0936, 0.3686, 10.9447, 9.7551, 2.7389, 12.4019, 0.3831, 15.794, 8.7401, 10.13, 8.9909, 7.8279, 9.7551, 2.7389, 12.4019, -10.412, 7.7479, 11.3015, -12.5235, 8.5798, 9.5607, -10.1585, 8.9947, 11.3988, 8.1864, -0.8158, -16.6058, 6.2778, -1.9719, -17.3377, 7.5864, -3.5775, -15.2874, 8.8079, 1.5855, -15.134, 8.1864, -0.8158, -16.6058, 8.8857, -2.7711, -14.7831, 6.9503, -5.773, -14.3721, 10.8556, -4.3146, -11.0912, 7.5864, -3.5775, -15.2874, 10.8556, -4.3146, -11.0912, 8.8857, -2.7711, -14.7831, 7.5864, -3.5775, -15.2874, -3.847, 11.1238, -19.7602, -4.7373, 8.9, -19.7256, -2.7275, 6.7311, -19.4913, -5.9472, 7.0242, -18.9295, -2.7275, 6.7311, -19.4913, -4.7373, 8.9, -19.7256, -5.9472, 7.0242, -18.9295, -4.7373, 8.9, -19.7256, -6.788, 11.649, -18.7059, -3.847, 11.1238, -19.7602, -6.788, 11.649, -18.7059, -4.7373, 8.9, -19.7256, 3.2272, 28.3904, -9.1707, 6.744, 25.5223, -10.3398, 7.8979, 24.1487, -7.6145, 8.7366, 21.1371, -8.118, 7.8979, 24.1487, -7.6145, 6.744, 25.5223, -10.3398, 8.1496, 12.1255, -12.4347, 8.7366, 21.1371, -8.118, 6.744, 25.5223, -10.3398, -14.5968, 27.3326, -3.028, -13.76, 28.328, -3.9146, -12.5539, 28.6902, -3.0857, -10.4239, 29.9463, -4.1203, -12.5539, 28.6902, -3.0857, -13.76, 28.328, -3.9146, -9.9975, 29.5229, -5.5583, -13.76, 28.328, -3.9146, -13.5376, 27.7957, -5.6845, -16.0852, 20.7884, -9.6091, -17.8119, 11.8951, -9.0055, -14.5774, 20.0276, -13.0021, -16.0852, 20.7884, -9.6091, -14.5774, 20.0276, -13.0021, -14.7647, 21.2593, -12.0558, -11.797, 24.2164, -10.8307, -13.5596, 25.0855, -7.8459, -14.7647, 21.2593, -12.0558, -10.3632, 21.2647, -13.9891, -11.797, 24.2164, -10.8307, -14.7647, 21.2593, -12.0558, -14.5774, 20.0276, -13.0021, -10.3632, 21.2647, -13.9891, -14.7647, 21.2593, -12.0558, 11.21, 16.7628, 2.0426, 13.8518, 13.2443, -1.0616, 15.3529, 5.7613, 2.2368, 11.21, 16.7628, 2.0426, 12.4334, 16.9833, -0.6247, 13.8518, 13.2443, -1.0616, 3.4551, -9.697, -11.3693, 10.8556, -4.3146, -11.0912, 6.9503, -5.773, -14.3721, 0.1146, -14.1127, -0.322, -5.0083, -12.285, -6.4363, -12.7444, -8.9204, -4.6055, -2.0902, 24.1077, 4.1909, 0.3831, 15.794, 8.7401, -4.137, 20.348, 7.7772, -17.8119, 11.8951, -9.0055, -14.9227, 13.9065, -12.5694, -14.5774, 20.0276, -13.0021, -2.2572, 20.2437, -16.7555, -3.847, 11.1238, -19.7602, 0.2091, 19.3915, -17.2015, -3.847, 11.1238, -19.7602, 3.3755, 10.7272, -16.9789, 0.2091, 19.3915, -17.2015, -7.1829, 22.6679, 6.4743, -10.5156, 18.3577, 6.6684, -15.9303, 22.9508, 0.1479, -6.7482, 25.248, 5.2297, -5.7339, 29.5328, -0.2768, -2.0902, 24.1077, 4.1909, -2.9911, 30.8896, -8.3904, 3.2272, 28.3904, -9.1707, -3.2441, 32.332, -6.4532, 3.2272, 28.3904, -9.1707, -1.5002, 30.8817, -5.2458, -3.2441, 32.332, -6.4532, -15.3989, 25.5282, -4.7848, -16.3907, 24.8994, -2.5428, -17.6447, 22.2175, -5.9185, -17.6447, 22.2175, -5.9185, -16.3907, 24.8994, -2.5428, -19.1446, 21.5098, -1.3477, -16.3907, 24.8994, -2.5428, -15.9303, 22.9508, 0.1479, -19.1446, 21.5098, -1.3477, -13.0423, -2.424, 8.1111, -12.4339, -1.0852, 8.9086, -5.4659, -5.7617, 9.6557, -12.4339, -1.0852, 8.9086, -4.5317, -2.5095, 10.875, -5.4659, -5.7617, 9.6557, 10.8556, -4.3146, -11.0912, 11.7169, -6.9161, -5.1355, 13.2102, -5.7749, -4.4449, 11.7169, -6.9161, -5.1355, 11.571, -8.5809, 2.6678, 13.5992, -7.2446, 1.8663, 0.1146, -14.1127, -0.322, 2.775, -12.629, -5.379, 0.3069, -13.8725, -7.5474, -4.6265, -8.4472, -12.0555, -5.0083, -12.285, -6.4363, 0.3069, -13.8725, -7.5474, 0.2707, -0.6319, -17.5613, -9.0515, -2.1504, -16.1942, -0.978, -2.9465, -16.5578, 0.2707, -0.6319, -17.5613, -0.978, -2.9465, -16.5578, 6.2778, -1.9719, -17.3377, 6.2778, -1.9719, -17.3377, -0.978, -2.9465, -16.5578, 7.5864, -3.5775, -15.2874, 7.5864, -3.5775, -15.2874, -0.978, -2.9465, -16.5578, 6.9503, -5.773, -14.3721, -1.9707, 27.2916, -11.4542, -8.0472, 26.0529, -10.2176, -2.9931, 22.5116, -14.535, -1.9707, 27.2916, -11.4542, -2.9911, 30.8896, -8.3904, -8.0472, 26.0529, -10.2176, 13.8518, 13.2443, -1.0616, 14.8876, 8.5691, -2.1696, 16.7163, 4.0545, -0.4693, -19.445, 16.9081, -0.4266, -20.0041, 7.0763, 1.5227, -20.1543, 8.5288, -3.2854, -20.0041, 7.0763, 1.5227, -19.445, 16.9081, -0.4266, -16.5476, 8.1462, 5.4906, -10.3798, -0.7871, -16.4411, -11.7785, 7.2942, -15.3944, -16.8809, 2.8714, -9.0059, 8.8079, 1.5855, -15.134, 3.3755, 10.7272, -16.9789, 8.1864, -0.8158, -16.6058, 3.3755, 10.7272, -16.9789, 6.2778, -1.9719, -17.3377, 8.1864, -0.8158, -16.6058, 3.3755, 10.7272, -16.9789, 1.357, 4.4696, -18.4776, 6.2778, -1.9719, -17.3377, 8.7366, 21.1371, -8.118, 9.6367, 20.8259, -3.9078, 7.8979, 24.1487, -7.6145, -5.3399, 32.3928, -6.0601, -9.9375, 27.6136, -8.3394, -11.797, 24.2164, -10.8307, -1.9707, 27.2916, -11.4542, -2.9931, 22.5116, -14.535, 0.7929, 21.4682, -15.1687, 15.7866, 0.6241, -1.3186, 13.8386, -0.2769, -7.8624, 14.6159, -2.0653, -5.5471, 15.7866, 0.6241, -1.3186, 16.7163, 4.0545, -0.4693, 13.8386, -0.2769, -7.8624, 3.4642, 22.7518, -14.1975, 0.7929, 21.4682, -15.1687, 0.2091, 19.3915, -17.2015, -2.2572, 20.2437, -16.7555, -2.9931, 22.5116, -14.535, -10.3632, 21.2647, -13.9891, -6.788, 11.649, -18.7059, -14.5774, 20.0276, -13.0021, -10.6942, 11.9072, -15.934, -6.788, 11.649, -18.7059, -10.6942, 11.9072, -15.934, -5.9472, 7.0242, -18.9295, -15.3989, 25.5282, -4.7848, -13.5596, 25.0855, -7.8459, -13.5376, 27.7957, -5.6845, -13.5596, 25.0855, -7.8459, -11.797, 24.2164, -10.8307, -13.5376, 27.7957, -5.6845, -17.9802, 20.6924, -6.5958, -19.7849, 19.717, -1.2514, -19.5635, 15.466, -3.4336, -17.9802, 20.6924, -6.5958, -17.6447, 22.2175, -5.9185, -19.7849, 19.717, -1.2514, -17.9802, 20.6924, -6.5958, -16.0852, 20.7884, -9.6091, -17.6447, 22.2175, -5.9185, -12.5539, 28.6902, -3.0857, -10.4239, 29.9463, -4.1203, -9.6589, 26.3086, 1.745, 14.6159, -2.0653, -5.5471, 8.8857, -2.7711, -14.7831, 10.8556, -4.3146, -11.0912, 14.6159, -2.0653, -5.5471, 13.8386, -0.2769, -7.8624, 8.8857, -2.7711, -14.7831, 16.7163, 4.0545, -0.4693, 11.0168, 2.5422, -12.4473, 13.8386, -0.2769, -7.8624, 16.7163, 4.0545, -0.4693, 14.8876, 8.5691, -2.1696, 11.0168, 2.5422, -12.4473, 13.8386, -0.2769, -7.8624, 11.0168, 2.5422, -12.4473, 8.8857, -2.7711, -14.7831, -7.3515, 3.2367, -18.4359, -11.7785, 7.2942, -15.3944, -10.3798, -0.7871, -16.4411, -5.9472, 7.0242, -18.9295, -11.7785, 7.2942, -15.3944, -7.3515, 3.2367, -18.4359, 8.7366, 21.1371, -8.118, 8.1496, 12.1255, -12.4347, 11.0168, 2.5422, -12.4473, -9.0515, -2.1504, -16.1942, -7.3515, 3.2367, -18.4359, -10.3798, -0.7871, -16.4411, 14.9367, -3.7343, 4.4208, 15.7866, 0.6241, -1.3186, 13.5992, -7.2446, 1.8663, 16.6782, 1.4548, 1.3725, 15.7866, 0.6241, -1.3186, 14.9367, -3.7343, 4.4208, -20.1543, 8.5288, -3.2854, -19.4809, 5.8855, -6.1411, -19.5635, 15.466, -3.4336, -4.137, 20.348, 7.7772, -8.2763, 16.3156, 8.8543, -7.1829, 22.6679, 6.4743, -2.7275, 6.7311, -19.4913, 1.357, 4.4696, -18.4776, -3.847, 11.1238, -19.7602, -1.7702, 6.1285, 12.0751, 9.7551, 2.7389, 12.4019, 7.5608, 0.851, 12.6027, 5.0488, -2.7854, 12.0842, 1.6869, -6.9652, 9.7046, -1.697, -7.2808, 10.555, 15.7396, 3.469, 2.9055, 16.6782, 1.4548, 1.3725, 14.9367, -3.7343, 4.4208, -12.7444, -8.9204, -4.6055, -13.0423, -2.424, 8.1111, -8.9512, -7.5292, 3.2247, -8.9512, -7.5292, 3.2247, -13.0423, -2.424, 8.1111, -5.4659, -5.7617, 9.6557, 0.1146, -14.1127, -0.322, 1.6869, -6.9652, 9.7046, 6.705, -11.4904, 2.5305 )

[node name="ast_ice_3_cr" instance=ExtResource( 1 )]

[node name="StaticBody" type="StaticBody" parent="ast_ice_3" index="0"]

[node name="CollisionShape" type="CollisionShape" parent="ast_ice_3/StaticBody" index="0"]
shape = SubResource( 1 )
