[gd_scene load_steps=3 format=2]

[ext_resource path="res://kerno/wablono/estonteco/fenestroj.tscn" type="PackedScene" id=1]
[ext_resource path="res://kerno/fenestroj/tipo_c.gd" type="Script" id=2]

[node name="tipo_c" instance=ExtResource( 1 )]
margin_right = 200.0
margin_bottom = 200.0
rect_min_size = Vector2( 200, 200 )
script = ExtResource( 2 )

[node name="VBox" parent="." index="0"]
anchor_right = 1.0
anchor_bottom = 1.0
margin_right = -6.00002
margin_bottom = -5.99998
alignment = 2
